…
filter(flights,origin == "JFK",month == 6L) #－ 获取六月份所有从”JFK”机场起飞的航班

## # A tibble: 9,472 × 19
##     year month   day dep_time sched_de…¹ dep_d…² arr_t…³ sched…⁴ arr_d…⁵ carrier
##    <int> <int> <int>    <int>      <int>   <dbl>   <int>   <int>   <dbl> <chr>  
##  1  2013     6     1        2       2359       3     341     350      -9 B6     
##  2  2013     6     1      538        545      -7     925     922       3 B6     
##  3  2013     6     1      539        540      -1     832     840      -8 AA     
##  4  2013     6     1      553        600      -7     700     711     -11 EV     
##  5  2013     6     1      554        600      -6     851     908     -17 UA     
##  6  2013     6     1      557        600      -3     934     942      -8 B6     
##  7  2013     6     1      559        600      -1     856     930     -34 UA     
##  8  2013     6     1      606        610      -4     847     906     -19 B6     
##  9  2013     6     1      609        615      -6     759     808      -9 US     
## 10  2013     6     1      615        610       5     837     847     -10 B6     
## # … with 9,462 more rows, 9 more variables: flight <int>, tailnum <chr>,
## #   origin <chr>, dest <chr>, air_time <dbl>, distance <dbl>, hour <dbl>,
## #   minute <dbl>, time_hour <dttm>, and abbreviated variable names
## #   ¹​sched_dep_time, ²​dep_delay, ³​arr_time, ⁴​sched_arr_time, ⁵​arr_delay
…
## # A tibble: 4 × 19
##    year month   day dep_time sched_dep…¹ dep_d…² arr_t…³ sched…⁴ arr_d…⁵ carrier
##   <int> <int> <int>    <int>       <int>   <dbl>   <int>   <int>   <dbl> <chr>  
## 1  2013     8    18     2149        2150      -1      56      45      11 B6     
## 2  2013     9    22      917         922      -5    1132    1136      -4 EV     
## 3  2013     4    14     2257        1855     242     223    2240     223 VX     
## 4  2013     1     7     1244        1100     104    1536    1432      64 UA     
## # … with 9 more variables: flight <int>, tailnum <chr>, origin <chr>,
## #   dest <chr>, air_time <dbl>, distance <dbl>, hour <dbl>, minute <dbl>,
## #   time_hour <dttm>, and abbreviated variable names ¹​sched_dep_time,
## #   ²​dep_delay, ³​arr_time, ⁴​sched_arr_time, ⁵​arr_delay

flights %>% top_n(4,dep_time)

## # A tibble: 29 × 19
##     year month   day dep_time sched_de…¹ dep_d…² arr_t…³ sched…⁴ arr_d…⁵ carrier
##    <int> <int> <int>    <int>      <int>   <dbl>   <int>   <int>   <dbl> <chr>  
##  1  2013    10    30     2400       2359       1     327     337     -10 B6     
##  2  2013    11    27     2400       2359       1     515     445      30 B6     
##  3  2013    12     5     2400       2359       1     427     440     -13 B6     
##  4  2013    12     9     2400       2359       1     432     440      -8 B6     
##  5  2013    12     9     2400       2250      70      59    2356      63 B6     
##  6  2013    12    13     2400       2359       1     432     440      -8 B6     
##  7  2013    12    19     2400       2359       1     434     440      -6 B6     
##  8  2013    12    29     2400       1700     420     302    2025     397 AA     
##  9  2013     2     7     2400       2359       1     432     436      -4 B6     
## 10  2013     2     7     2400       2359       1     443     444      -1 B6     
## # … with 19 more rows, 9 more variables: flight <int>, tailnum <chr>,
## #   origin <chr>, dest <chr>, air_time <dbl>, distance <dbl>, hour <dbl>,
## #   minute <dbl>, time_hour <dttm>, and abbreviated variable names
## #   ¹​sched_dep_time, ²​dep_delay, ³​arr_time, ⁴​sched_arr_time, ⁵​arr_delay
…
iris %>% select(where(is.factor)) %>% head()

##   Species
## 1  setosa
## 2  setosa
## 3  setosa
## 4  setosa
## 5  setosa
## 6  setosa

行同时选择——子集

filter(flights,origin == "JFK",month == 6L) %>%select(day:arr_delay)

## # A tibble: 9,472 × 7
##      day dep_time sched_dep_time dep_delay arr_time sched_arr_time arr_delay
##    <int>    <int>          <int>     <dbl>    <int>          <int>     <dbl>
##  1     1        2           2359         3      341            350        -9
##  2     1      538            545        -7      925            922         3
##  3     1      539            540        -1      832            840        -8
##  4     1      553            600        -7      700            711       -11
##  5     1      554            600        -6      851            908       -17
##  6     1      557            600        -3      934            942        -8
##  7     1      559            600        -1      856            930       -34
##  8     1      606            610        -4      847            906       -19
##  9     1      609            615        -6      759            808        -9
## 10     1      615            610         5      837            847       -10
## # … with 9,462 more rows
…
# 可以在同一语句中对刚新增加的列进行操作:
transmute(flights, 
       gain = arr_delay + dep_delay, 
       gain_per_hour = gain / (arr_time / 60))

## # A tibble: 336,776 × 2
##     gain gain_per_hour
##    <dbl>         <dbl>
##  1    13         0.940
##  2    24         1.69 
##  3    35         2.28 
##  4   -19        -1.14 
##  5   -31        -2.29 
##  6     8         0.649
##  7    14         0.920
##  8   -17        -1.44 
##  9   -11        -0.788
## 10     6         0.478
## # … with 336,766 more rows
…
