…
by_cyl <- mtcars %>% group_by(cyl)

by_cyl %>% arrange(desc(wt), .by_group = TRUE) #默认忽视对组的升序排序,设置为TRUE则把组进行升序排序以后再按比变量进行排序

## # A tibble: 32 × 11
## # Groups:   cyl [3]
##      mpg   cyl  disp    hp  drat    wt  qsec    vs    am  gear  carb
##    <dbl> <dbl> <dbl> <dbl> <dbl> <dbl> <dbl> <dbl> <dbl> <dbl> <dbl>
##  1  24.4     4 147.     62  3.69  3.19  20       1     0     4     2
##  2  22.8     4 141.     95  3.92  3.15  22.9     1     0     4     2
##  3  21.4     4 121     109  4.11  2.78  18.6     1     1     4     2
##  4  21.5     4 120.     97  3.7   2.46  20.0     1     0     3     1
##  5  22.8     4 108      93  3.85  2.32  18.6     1     1     4     1
##  6  32.4     4  78.7    66  4.08  2.2   19.5     1     1     4     1
##  7  26       4 120.     91  4.43  2.14  16.7     0     1     5     2
##  8  27.3     4  79      66  4.08  1.94  18.9     1     1     4     1
##  9  33.9     4  71.1    65  4.22  1.84  19.9     1     1     4     1
## 10  30.4     4  75.7    52  4.93  1.62  18.5     1     1     4     2
## # … with 22 more rows
…
